{
	"aururl": "https://aur.archlinux.org",
	"buildDir": "/home/chmouel/.cache/yay",
	"editor": "",
	"editorflags": "",
	"makepkgbin": "makepkg",
	"makepkgconf": "",
	"pacmanbin": "pacman",
	"pacmanconf": "/etc/pacman.conf",
	"redownload": "no",
	"rebuild": "no",
	"answerclean": "yes",
	"answerdiff": "no",
	"answeredit": "no",
	"answerupgrade": "",
	"gitbin": "git",
	"gpgbin": "gpg",
	"gpgflags": "",
	"mflags": "",
	"sortby": "votes",
	"searchby": "name-desc",
	"gitflags": "",
	"removemake": "yes",
	"sudobin": "sudo",
	"sudoflags": "",
	"requestsplitn": 150,
	"completionrefreshtime": 7,
	"bottomup": true,
	"sudoloop": false,
	"timeupdate": false,
	"devel": false,
	"cleanAfter": false,
	"provides": true,
	"pgpfetch": true,
	"upgrademenu": true,
	"cleanmenu": false,
	"diffmenu": true,
	"editmenu": false,
	"combinedupgrade": false,
	"useask": true,
	"batchinstall": false,
	"singlelineresults": false
}
