{
    "global": {
        "check_for_updates_on_startup": true,
        "show_in_menu_bar": false,
        "show_profile_name_in_menu_bar": false,
        "unsafe_ui": false
    },
    "profiles": [
        {
            "complex_modifications": {
                "parameters": {
                    "basic.simultaneous_threshold_milliseconds": 50,
                    "basic.to_delayed_action_delay_milliseconds": 500,
                    "basic.to_if_alone_timeout_milliseconds": 1000,
                    "basic.to_if_held_down_threshold_milliseconds": 500,
                    "mouse_motion_to_scroll.speed": 100
                },
                "rules": [
                    {
                        "description": "Map fn + number keys to their corresponding function keys (rev 1)",
                        "manipulators": [
                            {
                                "from": {
                                    "key_code": "1",
                                    "modifiers": {
                                        "mandatory": [
                                            "fn"
                                        ],
                                        "optional": [
                                            "any"
                                        ]
                                    }
                                },
                                "to": [
                                    {
                                        "key_code": "f1",
                                        "modifiers": [
                                            "fn"
                                        ]
                                    }
                                ],
                                "type": "basic"
                            },
                            {
                                "from": {
                                    "key_code": "2",
                                    "modifiers": {
                                        "mandatory": [
                                            "fn"
                                        ],
                                        "optional": [
                                            "any"
                                        ]
                                    }
                                },
                                "to": [
                                    {
                                        "key_code": "f2",
                                        "modifiers": [
                                            "fn"
                                        ]
                                    }
                                ],
                                "type": "basic"
                            },
                            {
                                "from": {
                                    "key_code": "3",
                                    "modifiers": {
                                        "mandatory": [
                                            "fn"
                                        ],
                                        "optional": [
                                            "any"
                                        ]
                                    }
                                },
                                "to": [
                                    {
                                        "key_code": "f3",
                                        "modifiers": [
                                            "fn"
                                        ]
                                    }
                                ],
                                "type": "basic"
                            },
                            {
                                "from": {
                                    "key_code": "4",
                                    "modifiers": {
                                        "mandatory": [
                                            "fn"
                                        ],
                                        "optional": [
                                            "any"
                                        ]
                                    }
                                },
                                "to": [
                                    {
                                        "key_code": "f4",
                                        "modifiers": [
                                            "fn"
                                        ]
                                    }
                                ],
                                "type": "basic"
                            },
                            {
                                "from": {
                                    "key_code": "5",
                                    "modifiers": {
                                        "mandatory": [
                                            "fn"
                                        ],
                                        "optional": [
                                            "any"
                                        ]
                                    }
                                },
                                "to": [
                                    {
                                        "key_code": "f5",
                                        "modifiers": [
                                            "fn"
                                        ]
                                    }
                                ],
                                "type": "basic"
                            },
                            {
                                "from": {
                                    "key_code": "6",
                                    "modifiers": {
                                        "mandatory": [
                                            "fn"
                                        ],
                                        "optional": [
                                            "any"
                                        ]
                                    }
                                },
                                "to": [
                                    {
                                        "key_code": "f6",
                                        "modifiers": [
                                            "fn"
                                        ]
                                    }
                                ],
                                "type": "basic"
                            },
                            {
                                "from": {
                                    "key_code": "7",
                                    "modifiers": {
                                        "mandatory": [
                                            "fn"
                                        ],
                                        "optional": [
                                            "any"
                                        ]
                                    }
                                },
                                "to": [
                                    {
                                        "key_code": "f7",
                                        "modifiers": [
                                            "fn"
                                        ]
                                    }
                                ],
                                "type": "basic"
                            },
                            {
                                "from": {
                                    "key_code": "8",
                                    "modifiers": {
                                        "mandatory": [
                                            "fn"
                                        ],
                                        "optional": [
                                            "any"
                                        ]
                                    }
                                },
                                "to": [
                                    {
                                        "key_code": "f8",
                                        "modifiers": [
                                            "fn"
                                        ]
                                    }
                                ],
                                "type": "basic"
                            },
                            {
                                "from": {
                                    "key_code": "9",
                                    "modifiers": {
                                        "mandatory": [
                                            "fn"
                                        ],
                                        "optional": [
                                            "any"
                                        ]
                                    }
                                },
                                "to": [
                                    {
                                        "key_code": "f9",
                                        "modifiers": [
                                            "fn"
                                        ]
                                    }
                                ],
                                "type": "basic"
                            },
                            {
                                "from": {
                                    "key_code": "0",
                                    "modifiers": {
                                        "mandatory": [
                                            "fn"
                                        ],
                                        "optional": [
                                            "any"
                                        ]
                                    }
                                },
                                "to": [
                                    {
                                        "key_code": "f10",
                                        "modifiers": [
                                            "fn"
                                        ]
                                    }
                                ],
                                "type": "basic"
                            },
                            {
                                "from": {
                                    "key_code": "hyphen",
                                    "modifiers": {
                                        "mandatory": [
                                            "fn"
                                        ],
                                        "optional": [
                                            "any"
                                        ]
                                    }
                                },
                                "to": [
                                    {
                                        "key_code": "f11",
                                        "modifiers": [
                                            "fn"
                                        ]
                                    }
                                ],
                                "type": "basic"
                            },
                            {
                                "from": {
                                    "key_code": "equal_sign",
                                    "modifiers": {
                                        "mandatory": [
                                            "fn"
                                        ],
                                        "optional": [
                                            "any"
                                        ]
                                    }
                                },
                                "to": [
                                    {
                                        "key_code": "f12",
                                        "modifiers": [
                                            "fn"
                                        ]
                                    }
                                ],
                                "type": "basic"
                            }
                        ]
                    },
                    {
                        "description": "right_option + S -> Slack",
                        "manipulators": [
                            {
                                "from": {
                                    "key_code": 22,
                                    "modifiers": {
                                        "mandatory": [
                                            "right_option"
                                        ]
                                    }
                                },
                                "to": [
                                    {
                                        "shell_command": "open '/Applications/Slack.app'"
                                    }
                                ],
                                "type": "basic"
                            }
                        ]
                    },
                    {
                        "description": "Home",
                        "manipulators": [
                            {
                                "conditions": [
                                    {
                                        "bundle_identifiers": [
                                            "^org\\.macports\\.X11$",
                                            "^com\\.apple\\.Terminal$",
                                            "^com\\.googlecode\\.iterm2$",
                                            "^co\\.zeit\\.hyper$",
                                            "^org\\.virtualbox\\.app\\.VirtualBoxVM$",
                                            "^com\\.microsoft\\.rdc\\.macos$",
                                            "^net\\.kovidgoyal\\.kitty$",
                                            "^tv\\.parsec\\.www$"
                                        ],
                                        "type": "frontmost_application_unless"
                                    }
                                ],
                                "from": {
                                    "key_code": "home"
                                },
                                "to": [
                                    {
                                        "key_code": "a",
                                        "modifiers": [
                                            "left_control"
                                        ]
                                    }
                                ],
                                "type": "basic"
                            }
                        ]
                    },
                    {
                        "description": "End",
                        "manipulators": [
                            {
                                "conditions": [
                                    {
                                        "bundle_identifiers": [
                                            "^org\\.macports\\.X11$",
                                            "^com\\.apple\\.Terminal$",
                                            "^com\\.googlecode\\.iterm2$",
                                            "^co\\.zeit\\.hyper$",
                                            "^org\\.virtualbox\\.app\\.VirtualBoxVM$",
                                            "^com\\.microsoft\\.rdc\\.macos$",
                                            "^net\\.kovidgoyal\\.kitty$",
                                            "^tv\\.parsec\\.www$"
                                        ],
                                        "type": "frontmost_application_unless"
                                    }
                                ],
                                "from": {
                                    "key_code": "end"
                                },
                                "to": [
                                    {
                                        "key_code": "e",
                                        "modifiers": [
                                            "left_control"
                                        ]
                                    }
                                ],
                                "type": "basic"
                            }
                        ]
                    }
                ]
            },
            "devices": [
                {
                    "disable_built_in_keyboard_if_exists": false,
                    "fn_function_keys": [],
                    "identifiers": {
                        "is_keyboard": true,
                        "is_pointing_device": false,
                        "product_id": 49974,
                        "vendor_id": 1133
                    },
                    "ignore": false,
                    "manipulate_caps_lock_led": true,
                    "simple_modifications": [
                        {
                            "from": {
                                "key_code": "delete_forward"
                            },
                            "to": [
                                {
                                    "key_code": "delete_forward"
                                }
                            ]
                        },
                        {
                            "from": {
                                "key_code": "print_screen"
                            },
                            "to": [
                                {
                                    "key_code": "mission_control"
                                }
                            ]
                        }
                    ],
                    "treat_as_built_in_keyboard": false
                },
                {
                    "disable_built_in_keyboard_if_exists": false,
                    "fn_function_keys": [],
                    "identifiers": {
                        "is_keyboard": true,
                        "is_pointing_device": false,
                        "product_id": 833,
                        "vendor_id": 1452
                    },
                    "ignore": false,
                    "manipulate_caps_lock_led": true,
                    "simple_modifications": [
                        {
                            "from": {
                                "key_code": "non_us_backslash"
                            },
                            "to": [
                                {
                                    "key_code": "grave_accent_and_tilde"
                                }
                            ]
                        }
                    ],
                    "treat_as_built_in_keyboard": false
                },
                {
                    "disable_built_in_keyboard_if_exists": false,
                    "fn_function_keys": [],
                    "identifiers": {
                        "is_keyboard": false,
                        "is_pointing_device": true,
                        "product_id": 833,
                        "vendor_id": 1452
                    },
                    "ignore": true,
                    "manipulate_caps_lock_led": false,
                    "simple_modifications": [],
                    "treat_as_built_in_keyboard": false
                },
                {
                    "disable_built_in_keyboard_if_exists": false,
                    "fn_function_keys": [],
                    "identifiers": {
                        "is_keyboard": true,
                        "is_pointing_device": false,
                        "product_id": 34304,
                        "vendor_id": 1452
                    },
                    "ignore": false,
                    "manipulate_caps_lock_led": true,
                    "simple_modifications": [],
                    "treat_as_built_in_keyboard": false
                },
                {
                    "disable_built_in_keyboard_if_exists": false,
                    "fn_function_keys": [],
                    "identifiers": {
                        "is_keyboard": true,
                        "is_pointing_device": false,
                        "product_id": 50475,
                        "vendor_id": 1133
                    },
                    "ignore": false,
                    "manipulate_caps_lock_led": true,
                    "simple_modifications": [],
                    "treat_as_built_in_keyboard": false
                },
                {
                    "disable_built_in_keyboard_if_exists": false,
                    "fn_function_keys": [],
                    "identifiers": {
                        "is_keyboard": false,
                        "is_pointing_device": true,
                        "product_id": 50475,
                        "vendor_id": 1133
                    },
                    "ignore": true,
                    "manipulate_caps_lock_led": false,
                    "simple_modifications": [],
                    "treat_as_built_in_keyboard": false
                }
            ],
            "fn_function_keys": [
                {
                    "from": {
                        "key_code": "f1"
                    },
                    "to": [
                        {
                            "consumer_key_code": "display_brightness_decrement"
                        }
                    ]
                },
                {
                    "from": {
                        "key_code": "f2"
                    },
                    "to": [
                        {
                            "consumer_key_code": "display_brightness_increment"
                        }
                    ]
                },
                {
                    "from": {
                        "key_code": "f3"
                    },
                    "to": [
                        {
                            "key_code": "f3"
                        }
                    ]
                },
                {
                    "from": {
                        "key_code": "f4"
                    },
                    "to": [
                        {
                            "key_code": "f4"
                        }
                    ]
                },
                {
                    "from": {
                        "key_code": "f5"
                    },
                    "to": [
                        {
                            "key_code": "f5"
                        }
                    ]
                },
                {
                    "from": {
                        "key_code": "f6"
                    },
                    "to": [
                        {
                            "key_code": "f6"
                        }
                    ]
                },
                {
                    "from": {
                        "key_code": "f7"
                    },
                    "to": [
                        {
                            "consumer_key_code": "rewind"
                        }
                    ]
                },
                {
                    "from": {
                        "key_code": "f8"
                    },
                    "to": [
                        {
                            "consumer_key_code": "play_or_pause"
                        }
                    ]
                },
                {
                    "from": {
                        "key_code": "f9"
                    },
                    "to": [
                        {
                            "consumer_key_code": "fast_forward"
                        }
                    ]
                },
                {
                    "from": {
                        "key_code": "f10"
                    },
                    "to": [
                        {
                            "consumer_key_code": "mute"
                        }
                    ]
                },
                {
                    "from": {
                        "key_code": "f11"
                    },
                    "to": [
                        {
                            "consumer_key_code": "volume_decrement"
                        }
                    ]
                },
                {
                    "from": {
                        "key_code": "f12"
                    },
                    "to": [
                        {
                            "consumer_key_code": "volume_increment"
                        }
                    ]
                }
            ],
            "name": "Default profile",
            "parameters": {
                "delay_milliseconds_before_open_device": 1000
            },
            "selected": true,
            "simple_modifications": [
                {
                    "from": {
                        "key_code": "caps_lock"
                    },
                    "to": [
                        {
                            "key_code": "left_control"
                        }
                    ]
                }
            ],
            "virtual_hid_keyboard": {
                "country_code": 0,
                "indicate_sticky_modifier_keys_state": true,
                "mouse_key_xy_scale": 100
            }
        }
    ]
}